graph com1 {
    a[label="Ц",shape=box];
    b[label="",shape=pentagon];
    c[label=""];

    d[label="Г",shape=box];
    e[label="",shape=pentagon];
    f[label=""];

    c -- b -- a;
    d -- e -- f;

    a -- d; a -- d; a -- d;
}
